189.125.154.53 #Brazil 	Microsoft DNS 6.1.7601
222.127.186.200 #Philippines 	dnsmasq-2.52
200.140.195.96 #Brazil, Foz do Iguaçu
189.125.17.210 #Brazil 	9.9.5-3ubuntu0.8-Ubuntu 
189.125.17.218 #Brazil
189.125.16.125 #Brazil
189.125.16.126 #Brazil
117.55.194.126 #Kabul
109.104.132.218 #Tirana
46.19.229.83 #Albania
82.114.89.201 #Albania
82.114.90.122 #Albania 
82.114.91.154 #Albania
185.38.193.10 #Albania
213.163.118.166 #Albania
213.163.118.194 #Albania
213.163.118.163 #Albania
213.163.118.53 #Albania
82.114.66.118 #Albania
178.132.217.242 #Albania
82.114.76.174 #Albania
82.114.76.238 #Albania
82.114.76.234 #Albania
93.159.192.137 #Albania, Durres
213.163.127.229 #Albania
213.163.119.186 #Albania
213.163.119.181 #Albania
80.91.119.73 #Albania
80.91.119.81 #Albania
109.69.160.146 #Albania, Durres
